<?xml version="1.0" encoding="utf-8"?>
<!-- Generator: Adobe Illustrator 23.1.0, SVG Export Plug-In . SVG Version: 6.00 Build 0)  -->
<svg version="1.1" id="Calque_1" xmlns="http://www.w3.org/2000/svg" xmlns:xlink="http://www.w3.org/1999/xlink" x="0px" y="0px"
	 width="24px" height="24px" viewBox="0 0 24 24" style="enable-background:new 0 0 24 24;" xml:space="preserve">
<style type="text/css">
	.st0{fill:#FFFFFF;}
</style>
<g id="info">
</g>
<g id="icons">
	<g id="settings2">
		<path class="st0" d="M5,11h14c2.2,0,4-1.8,4-4s-1.8-4-4-4H5C2.8,3,1,4.8,1,7S2.8,11,5,11z M5,5c1.1,0,2,0.9,2,2S6.1,9,5,9
			S3,8.1,3,7S3.9,5,5,5z"/>
		<path class="st0" d="M19,13H5c-2.2,0-4,1.8-4,4s1.8,4,4,4h14c2.2,0,4-1.8,4-4S21.2,13,19,13z M19,19c-1.1,0-2-0.9-2-2s0.9-2,2-2
			s2,0.9,2,2S20.1,19,19,19z"/>
	</g>
</g>
</svg>
